<svg xmlns="http://www.w3.org/2000/svg" width="14" height="19" fill="none" viewBox="0 0 14 19">
    <path fill="#000" fill-opacity="0" d="M-14.276-11.914H28.23V30.59h-42.506z"/>
    <path fill="#000" fill-rule="evenodd" d="M.483 0a.483.483 0 0 0 0 .966h12.904a.483.483 0 1 0 0-.966H.483zm13.358 10.685a.483.483 0 0 1-.683-.035L7.592 4.48l-.109 13.723a.483.483 0 1 1-.966-.007l.11-13.814-5.655 6.27a.483.483 0 0 1-.718-.648L6.706 2.85l.359-.397.359.397 6.452 7.153a.483.483 0 0 1-.035.682z" clip-rule="evenodd"/>
</svg>
