<svg width="22" height="22" viewBox="0 0 22 22" fill="none" xmlns="http://www.w3.org/2000/svg">
<path fill-rule="evenodd" clip-rule="evenodd" d="M2.51562 8.17627C2.51562 11.3083 5.04395 13.8367 8.17603 13.8367C11.3081 13.8367 13.8364 11.3083 13.8364 8.17627C13.8364 5.04419 11.3081 2.51587 8.17603 2.51587C5.04395 2.51587 2.51562 5.04419 2.51562 8.17627ZM14.7295 13.8364H15.7234L22 20.1257L20.1257 22L13.8364 15.7234V14.7295L13.4968 14.3774C12.063 15.6101 10.2012 16.3523 8.17603 16.3523C3.6604 16.3523 0 12.6919 0 8.17603C0 3.6604 3.6604 0 8.17603 0C12.6919 0 16.3523 3.6604 16.3523 8.17603C16.3523 10.2012 15.6101 12.063 14.3774 13.4968L14.7295 13.8364ZM7.54712 5.03149H8.80518V7.54712H11.3208V8.80518H8.80518V11.3208H7.54712V8.80518H5.03149V7.54712H7.54712V5.03149Z" fill="#000000"/>
</svg>
