<svg width="37px" height="72px" viewBox="0 0 37 72" version="1.1" xmlns="http://www.w3.org/2000/svg" xmlns:xlink="http://www.w3.org/1999/xlink">
    <!-- Generator: Sketch 49.3 (51167) - http://www.bohemiancoding.com/sketch -->
    <desc>Created with Sketch.</desc>
    <defs></defs>
    <g id="Page-1" stroke="none" stroke-width="1" fill="none" fill-rule="evenodd">
        <g id="Caps-Landing-Page" transform="translate(-1326.000000, -3469.000000)" stroke="#000000" stroke-width="1.5">
            <g id="Customization-Block" transform="translate(100.000000, 3133.000000)">
                <polyline id="Path-11" transform="translate(1244.500000, 372.000000) rotate(-180.000000) translate(-1244.500000, -372.000000) " points="1262 337 1227 372 1262 407"></polyline>
            </g>
        </g>
    </g>
</svg>